{
  "name": "RPC",
  "description": "System core rpc",
  "author": "abrakadobr",
  "www": "https://takatan.tk",

  "version": "0.2.1",
  "group": "core",
  "deps": ["events"],
  "confs": [{
    "code": "mode",
    "type": "string",
    "name": "RPC mode",
    "description": "RPC working mode - core||worker_code"
  },{
    "code": "layer",
    "type": "string",
    "name": "RPC layer",
    "description": "RPC working layer - websocket by default. RPC starts on required layer registration"
  }],
  "childs": []
}
